<font>
  <info face="font" size="72" bold="1" italic="0" charset="" unicode="" stretchH="100" smooth="1" aa="1" padding="1,1,1,1" spacing="0,0" outline="0"/>
  <common lineHeight="90" base="58" scaleW="92" scaleH="437" pages="1" packed="0"/>
  <pages>
    <page id="0" file="font.png"/>
  </pages>
  <chars count="11">
    <char id="49" x="1" y="1" width="21" height="51" xoffset="0" yoffset="7" xadvance="26" page="0" chnl="15"/>
    <char id="50" x="1" y="53" width="33" height="51" xoffset="3" yoffset="7" xadvance="39" page="0" chnl="15"/>
    <char id="51" x="23" y="1" width="33" height="51" xoffset="2" yoffset="7" xadvance="38" page="0" chnl="15"/>
    <char id="52" x="1" y="105" width="39" height="51" xoffset="6" yoffset="7" xadvance="51" page="0" chnl="15"/>
    <char id="54" x="1" y="157" width="34" height="52" xoffset="3" yoffset="7" xadvance="39" page="0" chnl="15"/>
    <char id="53" x="35" y="53" width="33" height="51" xoffset="4" yoffset="7" xadvance="42" page="0" chnl="15"/>
    <char id="55" x="57" y="1" width="34" height="51" xoffset="4" yoffset="7" xadvance="41" page="0" chnl="15"/>
    <char id="56" x="1" y="210" width="34" height="51" xoffset="4" yoffset="7" xadvance="42" page="0" chnl="15"/>
    <char id="57" x="1" y="262" width="34" height="52" xoffset="3" yoffset="6" xadvance="39" page="0" chnl="15"/>
    <char id="48" x="1" y="315" width="39" height="52" xoffset="3" yoffset="7" xadvance="44" page="0" chnl="15"/>
    <char id="47" x="1" y="368" width="37" height="68" xoffset="2" yoffset="0" xadvance="41" page="0" chnl="15"/>
    <char id="32" x="0" y="0" width="0" height="0" xoffset="2" yoffset="0" xadvance="20" page="0" chnl="15"/>
  </chars>
</font>